0 info it worked if it ends with ok
1 verbose cli [ '/home/plutecki/bin/node', '/home/plutecki/bin/npm', 'start' ]
2 info using npm@1.4.9
3 info using node@v0.10.28
4 verbose node symlink /home/plutecki/bin/node
5 error Error: ENOENT, open '/home/plutecki/xml/10/nodejs/cw14/bin/package.json'
6 error If you need help, you may report this *entire* log,
6 error including the npm and node versions, at:
6 error     <http://github.com/npm/npm/issues>
7 error System Linux 2.6.32-5-686
8 error command "/home/plutecki/bin/node" "/home/plutecki/bin/npm" "start"
9 error cwd /home/plutecki/xml/10/nodejs/cw14/bin
10 error node -v v0.10.28
11 error npm -v 1.4.9
12 error path /home/plutecki/xml/10/nodejs/cw14/bin/package.json
13 error code ENOENT
14 error errno 34
15 verbose exit [ 34, true ]
